{
    "version": "1.0.7.170910",
    "description": "Official modding kit for Banished",
    "homepage": "https://shiningrocksoftware.com/game/mods/",
    "license": "proprietary",
    "url": "https://shiningrocksoftware.com/download/BanishedKit_1.0.7.170910.zip",
    "hash": "615d75d111be843c48af2c1544e2a01aea317e26305ec8087b199cf9504ae964",
    "architecture": {
        "64bit": {
            "bin": [
                "bin/x64/Application-x64-profile.exe",
                "bin/x64/Tools-x64.exe",
                "bin/xWMAEncode.exe"
            ]
        },
        "32bit": {
            "bin": [
                "bin/x32/Application-x32-profile.exe",
                "bin/x32/Tools-x32.exe",
                "bin/xWMAEncode.exe"
            ]
        }
    },
    "checkver": {
        "regex": "BanishedKit_(?<version>[\\.0-9]+)\\.zip"
    },
    "autoupdate": {
        "url": "https://shiningrocksoftware.com/download/BanishedKit_$version.zip"
    }
}
