{
    "version": "0.1.2-823-gdfa71eb",
    "description": "A work-in-progress, open-source, multi-player city simulation game",
    "homepage": "https://aeplay.org/citybound",
    "license": "AGPL-3.0",
    "url": "https://citybound-livebuilds.s3.amazonaws.com/citybound-v0.1.2-685-g8a11e4d-windows.exe#/citybound.exe",
    "hash": "a6f7e891c0c4b3fb28e473f864debaa574fada8852c42a474fcb6f7e4b9c83e4",
    "shortcuts": [
        [
            "citybound.exe",
            "Citybound"
        ]
    ],
    "checkver": {
        "url": "https://citybound-livebuilds.s3.amazonaws.com/",
        "regex": ".+(?=citybound-v(?<version>[0-9\\.]+-[0-9]+-[a-z0-9]+)-windows.exe)"
    },
    "autoupdate": {
        "url": "https://citybound-livebuilds.s3.amazonaws.com/citybound-v$version-windows.exe"
    }
}
