{
    "version": "1.0.29",
    "description": "Web API request builder and quality assurance tool that automatically generates tests",
    "homepage": "https://www.humlix.com/",
    "license": "proprietary",
    "url": "https://download.humlix.nu/Humlix%20Setup%201.0.29.exe",
    "hash": "a15dee0d08f1f2843dbe5253bcced97b48954c801f0994d698c835584d98e645",
    "installer": {
        "script": [
            "Expand-7zipArchive \"$dir\\`$PLUGINSDIR\\app-64.7z\" \"$dir\"",
            "Remove-Item \"$dir\\`$PLUGINSDIR\", \"$dir\\Uninstall*\" -Force -Recurse"
        ]
    },
    "shortcuts": [
        [
            "Humlix.exe",
            "Humlix"
        ]
    ],
    "bin": "Humlix.exe",
    "checkver": {
        "url": "https://www.humlix.com/js/app.js",
        "regex": "Humlix%20Setup%20(?<version>.+?)\\.exe"
    },
    "autoupdate": {
        "url": "https://download.humlix.nu/Humlix%20Setup%20$version.exe"
    }
}
