{
    "version": "8.3.0",
    "description": "A logging and access event viewer for Logback, log4j & java.util.logging", 
    "homepage":  "https://sourceforge.net/p/lilith/",
    "license": "GPL-3.0",
    "url": [
        "https://download.sourceforge.net/project/lilith/lilith/8.3.0/lilith-8.3.0-all.jar#/lilith.jar",
        "https://sourceforge.net/p/lilith/code/ci/master/tree/icon.png?format=raw"
    ],
    "hash": [
        "f7bed0df4419ef8db1c4a9070ac24ed56a90ec45f870dbfaf7bec8b6c02edb17",
        "075520c9481b5dca4447dd09e50f268efa58036da2386da86e3d1197d052ab53"
    ],
    "pre_install": "Set-Content \"$dir\\lilith.bat\" \"@start javaw.exe -jar \"\"%~dp0lilith.jar\"\"\" -Encoding Ascii",
    "shortcuts": [
        [
            "lilith.bat",
            "lilith",
            "",
            "icon.png"
        ]
    ]
}
