{
    "version": "0.24",
    "description": "Convert AudioKinetic Wwise RIFF/RIFX Vorbis to standard Ogg Vorbis",
    "homepage": "https://github.com/hcs64/ww2ogg",
    "url": "https://github.com/hcs64/ww2ogg/releases/download/0.24/ww2ogg024.zip",
    "hash": "cb90dbcc45160e0c435a4d83f59f678337c069e5551618e6b1c46254e7aef59f",
    "checkver": {
        "url": "https://api.github.com/repos/hcs64/ww2ogg/releases",
        "regex": "hcs64\\/ww2ogg\\/releases\\/download\\/(?<version>[0-9\\.]+)\\/ww2ogg(?<fileversion>[0-9]+)\\.zip"
    },
    "autoupdate": {
        "url": "https://github.com/hcs64/ww2ogg/releases/download/$version/ww2ogg$matchFileversion.zip"
    },
    "license": "BSD-3",
    "bin": "ww2ogg.exe"
}
